test_id,PM2.5,PM10,O3
BL0#0,14.904247649441011,18.75479678977966,0
CD1#0,16.918278959748392,20.49208589920913,0
CD9#0,13.723545637717752,20.179865444192735,0
GN0#0,14.370012435107828,19.867630324467726,0
GN3#0,13.94656791981203,20.336767869384808,0
GR4#0,13.680329806820367,19.4525611739607,0
GR9#0,13.382711919041839,22.97405956662056,0
HV1#0,11.452678071353022,15.93246298211006,0
KF1#0,6.145901266542993,8.717006884998623,0
LW2#0,16.321313079256598,23.09255068027211,0
MY7#0,16.5026078871637,25.237627198263827,0
ST5#0,15.572139565335693,25.710593771108755,0
TH4#0,14.104935843450642,24.842917683313225,0
BL0#1,14.48394188302707,18.39750566626084,0
CD1#1,16.173899178952944,19.360799242244614,0
CD9#1,12.525597403433418,18.666981334732313,0
GN0#1,13.704300190463234,19.43663299975592,0
GN3#1,13.474242218053519,19.548888992256256,0
GR4#1,13.284814217077964,18.940113051678615,0
GR9#1,12.85102130328178,21.90477615036849,0
HV1#1,11.50438333494162,15.635152980753452,0
KF1#1,5.97989464644862,8.527876932568688,0
LW2#1,15.219211061042541,21.29221004092537,0
MY7#1,15.476556102848617,23.79856573982975,0
ST5#1,15.486483145390938,23.94462065535758,0
TH4#1,13.616907567769827,24.015029035397774,0
BL0#2,13.953097835834102,17.497012744290647,0
CD1#2,15.171927766009924,17.949449762317208,0
CD9#2,11.465252929994453,16.848538662092803,0
GN0#2,13.108623133972433,18.325464156440365,0
GN3#2,12.825816673175494,18.95499877608287,0
GR4#2,13.022619512278077,18.489541482407773,0
GR9#2,12.267951476172513,20.828212637022357,0
HV1#2,11.103944103024187,14.850149332284065,0
KF1#2,5.909453521161825,8.406222975041723,0
LW2#2,13.571606512217613,19.711417079875517,0
MY7#2,14.297859696234243,22.209361042425265,0
ST5#2,13.601220678545278,20.944020610666154,0
TH4#2,13.267552958251438,22.65695739764869,0
BL0#3,13.434324155754343,17.20814305076322,0
CD1#3,14.55554875352863,16.935618578645865,0
CD9#3,10.64379735397624,15.487562480539287,0
GN0#3,12.620125820903347,17.181030363118342,0
GN3#3,12.141112605006796,17.690777789562375,0
GR4#3,12.58822194308257,17.62136648413827,0
GR9#3,11.492791912250787,19.822052399826596,0
HV1#3,10.63139646922228,14.157556815931924,0
KF1#3,5.762117802858351,8.168491212738301,0
LW2#3,12.22359052992881,17.77388408780839,0
MY7#3,13.106904985813392,20.351244426938713,0
ST5#3,14.27550818473837,21.678436914899102,0
TH4#3,12.027902082490705,21.332697548406546,0
BL0#4,13.227553896710136,16.695879575702744,0
CD1#4,14.192714249650765,16.158108825472095,0
CD9#4,10.013681045494266,14.62430591450142,0
GN0#4,12.287157377637868,16.865996748713318,0
GN3#4,11.542872004873873,17.237457289760574,0
GR4#4,12.034809130348874,17.450174989443855,0
GR9#4,10.921566795898547,18.883837232922524,0
HV1#4,10.332190778942397,13.619323570835805,0
KF1#4,5.621575501850397,7.950825001513451,0
LW2#4,12.181506843849666,17.60074992814931,0
MY7#4,12.616452719254996,19.35707780483507,0
ST5#4,14.190476658365068,21.572734243232567,0
TH4#4,11.764978344932564,20.50288142939961,0
BL0#5,12.94595809178028,16.05084654416123,0
CD1#5,13.950870188015601,15.802891841353668,0
CD9#5,9.872881765246255,14.40753688207462,0
GN0#5,11.972032019712449,16.438829125271685,0
GN3#5,11.416767693609334,16.686099806609366,0
GR4#5,11.830704386892284,16.85796287762792,0
GR9#5,10.680228922066048,18.449200092099527,0
HV1#5,10.195677911794942,13.494219619509904,0
KF1#5,5.494433709803786,7.74174950552044,0
LW2#5,11.707384575718606,17.036379004742145,0
MY7#5,12.64026853674886,18.88950140334725,0
ST5#5,13.569940964926689,21.119772669679904,0
TH4#5,11.575458252650991,20.131800226590435,0
BL0#6,12.713649995083898,15.762648149528136,0
CD1#6,13.94823119704313,16.045990889481658,0
CD9#6,10.067778856350234,14.981393941828609,0
GN0#6,11.69888158728034,16.652228298946405,0
GN3#6,11.421835341859616,16.86939303269345,0
GR4#6,11.65291707957042,16.44718566559404,0
GR9#6,10.852533300321443,19.181278413527377,0
HV1#6,9.863176122571595,13.615730112968606,0
KF1#6,5.387354261889835,7.707758410408885,0
LW2#6,12.12198605594723,17.843955961853624,0
MY7#6,12.60756412438067,19.449574305948634,0
ST5#6,13.299159781274511,22.206729949177415,0
TH4#6,11.750118997758596,20.802856634093647,0
BL0#7,12.800945566093656,16.086943442195686,0
CD1#7,14.454904457545652,17.656431822048784,0
CD9#7,10.986441465212694,16.509465019361915,0
GN0#7,12.043026390748103,17.44795999496409,0
GN3#7,11.853484916350622,17.6764157243671,0
GR4#7,11.421315994665084,16.53133566604311,0
GR9#7,11.351161689582216,20.163408119296232,0
HV1#7,10.392541393746296,15.21367793709642,0
KF1#7,5.379088702173109,7.775615898532175,0
LW2#7,12.300072056871084,18.548643390808603,0
MY7#7,13.569340923806484,21.316666795608285,0
ST5#7,14.610203773134426,26.323490237563266,0
TH4#7,13.040773662103584,22.963046786073804,0
BL0#8,12.97778215795997,16.827810975445026,0
CD1#8,15.610516339675565,20.137348011039514,0
CD9#8,12.560433546269335,18.878524525407823,0
GN0#8,12.99275100541811,18.354514994029365,0
GN3#8,12.311736531238324,18.434758614255195,0
GR4#8,11.579831624588186,17.02500606105513,0
GR9#8,11.808404386484884,21.086562065291254,0
HV1#8,10.96973642096276,16.772657746221487,0
KF1#8,5.43139210661623,8.058135323775694,0
LW2#8,12.940632431617502,18.896768309499116,0
MY7#8,15.122292530826881,23.57788776081275,0
ST5#8,14.648507771807328,28.911488841359297,0
TH4#8,14.25676429445162,25.986869022799894,0
BL0#9,13.647571205117789,18.2459710037542,0
CD1#9,16.44763901906544,21.88767268022434,0
CD9#9,13.65394452749949,20.86339460892627,0
GN0#9,12.664638117185108,19.133021061572304,0
GN3#9,12.538205815415568,19.264954481773973,0
GR4#9,11.58529008080367,17.49810180338334,0
GR9#9,11.532483279398043,21.04196521019322,0
HV1#9,11.073068500195054,17.493736903097137,0
KF1#9,5.429779281932137,8.369668761005915,0
LW2#9,13.049637860383118,19.921703605794256,0
MY7#9,15.680947473029047,24.663611445226536,0
ST5#9,15.322040710004611,29.023073491068537,0
TH4#9,14.613588264600446,27.11522292784131,0
BL0#10,13.945943595700028,20.280564060396497,0
CD1#10,16.74601801854199,22.73825760677814,0
CD9#10,14.58309553972279,22.09437868511409,0
GN0#10,13.171745480241723,20.163323400305746,0
GN3#10,12.505180388319108,19.753985899149022,0
GR4#10,11.94374645305056,18.339268262984692,0
GR9#10,11.204482380608747,21.024716786990624,0
HV1#10,11.04815151771465,17.531737596009535,0
KF1#10,5.406333661245776,8.99782773236635,0
LW2#10,13.090991219119624,20.58138123051316,0
MY7#10,16.22335853498213,26.10936197596223,0
ST5#10,15.777801414687126,31.424639315352696,0
TH4#10,14.432270908814894,28.113652914443783,0
BL0#11,13.947514845013288,20.1869057940742,0
CD1#11,16.759987627470284,23.82724597829556,0
CD9#11,14.625908417391864,22.31870397280315,0
GN0#11,13.024816881714319,20.186486087777894,0
GN3#11,12.337140804009271,19.831234645308015,0
GR4#11,12.243829577543234,18.17118057232794,0
GR9#11,11.114062244792635,20.865038470813147,0
HV1#11,10.5353935608372,17.55033865295904,0
KF1#11,5.341157536645828,9.096233549880314,0
LW2#11,13.042364630260817,20.898602790986462,0
MY7#11,16.551131592473066,26.704063553552903,0
ST5#11,15.61101934328566,32.54929493109984,0
TH4#11,14.049691998405478,28.223655924209027,0
BL0#12,13.786087232458918,19.722258282157675,0
CD1#12,15.798890392752968,22.833993533043213,0
CD9#12,14.074625250278766,21.83952740239014,0
GN0#12,12.12244322400683,18.956861744115155,0
GN3#12,11.73928717998904,19.772470871369293,0
GR4#12,11.605084746831894,17.64444089173434,0
GR9#12,10.598559082526512,20.14999974720179,0
HV1#12,10.153761676226507,17.786476216767813,0
KF1#12,5.147853535898194,8.698012239538631,0
LW2#12,13.109814034286295,20.297608411454327,0
MY7#12,16.017898829662734,26.425403057062812,0
ST5#12,14.540520256046959,30.969578677131995,0
TH4#12,13.74584942464816,27.579110151988438,0
BL0#13,13.353811287843861,19.394087618989506,0
CD1#13,15.396891237490845,21.587621557698778,0
CD9#13,13.767021432703013,21.460128392232114,0
GN0#13,11.454422348377195,18.986308254069584,0
GN3#13,11.155814276932533,18.87448719220109,0
GR4#13,11.42397890894961,17.39735386230841,0
GR9#13,10.280577394286809,20.296820749167846,0
HV1#13,9.893366263576398,17.408115819791835,0
KF1#13,4.906320897247113,8.319211117090438,0
LW2#13,13.7498843645429,21.524108424378543,0
MY7#13,15.545997482249884,25.419163428670224,0
ST5#13,13.225436603438055,30.373344142372147,0
TH4#13,13.03261723255471,27.368669798703745,0
BL0#14,13.338085526452282,19.08551459555967,0
CD1#14,15.280028662525774,21.34829997925311,0
CD9#14,13.531558026604216,21.35618797339475,0
GN0#14,11.21968221803093,18.234073869399392,0
GN3#14,10.943109244884818,18.650075056760354,0
GR4#14,11.338755620635562,17.297729224111006,0
GR9#14,10.22608612069593,21.448721566500005,0
HV1#14,9.49564060861501,17.084982223349947,0
KF1#14,4.780688625806746,8.10191737145215,0
LW2#14,15.055064551737102,22.78065180125055,0
MY7#14,15.801108216119278,25.72471461952317,0
ST5#14,13.964455693480712,30.23430349414752,0
TH4#14,13.053317842323649,26.80558395238287,0
BL0#15,13.090428211533577,18.69100780884968,0
CD1#15,14.859915664907543,20.790936812694174,0
CD9#15,12.908937464871242,21.024051137954995,0
GN0#15,11.328113732196927,18.184069537675857,0
GN3#15,11.084517011373164,19.044306018134318,0
GR4#15,11.178940753713782,17.175277383561006,0
GR9#15,10.102580085083197,19.82764706950207,0
HV1#15,9.32350933478649,16.938233792279643,0
KF1#15,4.6296440239302825,7.824987788168097,0
LW2#15,15.267017311640096,22.690612735605995,0
MY7#15,15.72776721022975,25.54386099942767,0
ST5#15,13.876783903606768,30.763990611353712,0
TH4#15,12.8149687462952,27.143448407309613,0
BL0#16,12.749029112671561,18.176184584969203,0
CD1#16,14.679375775816725,20.558519290336903,0
CD9#16,12.590336073372903,20.680455781577457,0
GN0#16,10.901862161364683,17.594942076329794,0
GN3#16,10.888946224683398,18.228234601805347,0
GR4#16,10.734234571859675,17.198628838174276,0
GR9#16,10.000575627542009,19.630297173236514,0
HV1#16,9.251488520930723,16.85372304174782,0
KF1#16,4.642422565486321,8.170317050495752,0
LW2#16,14.652516519284402,22.125812889185507,0
MY7#16,15.354788639677023,25.01800043355676,0
ST5#16,14.140371194832138,29.990244280891762,0
TH4#16,12.370854932891351,25.736688933953143,0
BL0#17,12.620519368531502,17.687310113403804,0
CD1#17,14.563315427793192,20.39341348547718,0
CD9#17,12.539774284415357,20.440473052357138,0
GN0#17,11.050180698289092,17.887936193889104,0
GN3#17,11.071950536978276,18.172151427424136,0
GR4#17,11.06804640065618,17.24873435815336,0
GR9#17,10.055398771472676,19.600119422527033,0
HV1#17,9.122344240073476,16.097535436387933,0
KF1#17,4.553963986735616,7.92212084241665,0
LW2#17,14.98070587410109,22.07202039191231,0
MY7#17,15.324967134029361,24.599005045131857,0
ST5#17,13.843998872013858,29.002762734035016,0
TH4#17,12.327198295500773,25.01983042354968,0
BL0#18,12.463654724729434,17.17044051006983,0
CD1#18,14.952194798943795,20.49242385892116,0
CD9#18,12.26524755733134,19.728380737063766,0
GN0#18,11.15520610336734,17.559802874016754,0
GN3#18,11.488253317589919,18.575619133934424,0
GR4#18,11.213417404333795,17.272738037745953,0
GR9#18,10.416561471268238,20.210979894243298,0
HV1#18,9.903813016751192,16.61522570858602,0
KF1#18,4.6669437993126035,7.703027198818263,0
LW2#18,14.89665733448159,21.88071813366293,0
MY7#18,15.395073851767064,24.354829611931162,0
ST5#18,13.500277078905645,27.17229991968947,0
TH4#18,12.197763096344005,23.90233168933076,0
BL0#19,13.102536752648614,17.704369870908256,0
CD1#19,15.31889247152018,20.48554806630947,0
CD9#19,13.243318942116346,20.519534356473404,0
GN0#19,11.843805580986695,17.860408094382855,0
GN3#19,12.422930072928454,19.762491071466183,0
GR4#19,11.55313891214144,17.531359191303597,0
GR9#19,11.502177940427897,21.241410618900122,0
HV1#19,10.614066786300384,17.055079753898983,0
KF1#19,4.892948821595487,7.7232641896781695,0
LW2#19,16.232981056346222,23.485990546718924,0
MY7#19,15.967710932591377,24.71055823947836,0
ST5#19,14.571113229192092,26.794737425513993,0
TH4#19,12.564366701824337,24.047629172748593,0
BL0#20,13.974862014912322,18.376109312538446,0
CD1#20,16.291160603545833,21.30898615274435,0
CD9#20,14.339767494944473,21.13891013444068,0
GN0#20,12.61179638187695,18.96044837763074,0
GN3#20,13.477029836373603,20.677088029674337,0
GR4#20,12.126737551867219,18.386206989182835,0
GR9#20,12.350627880853585,22.4285075729886,0
HV1#20,10.907876981722639,16.818948298755185,0
KF1#20,5.334946746510254,8.053283308276642,0
LW2#20,18.92440750148192,25.78127137743064,0
MY7#20,16.540165205326254,25.490320892385622,0
ST5#20,15.249653267374216,27.698797079972167,0
TH4#20,13.438343569447994,24.683956783749878,0
BL0#21,14.92036585119871,19.155054167016647,0
CD1#21,16.972979241623523,21.73744890984534,0
CD9#21,14.628417918884926,21.375960403182425,0
GN0#21,13.420834437086095,19.87865434497115,0
GN3#21,14.1310794299116,20.839408263037104,0
GR4#21,13.3226134381129,19.06246852164653,0
GR9#21,13.32439632122255,23.724521212941248,0
HV1#21,11.73685667451684,17.494801699001908,0
KF1#21,5.866408008784573,8.596271061651693,0
LW2#21,19.94246074033632,28.111132952205317,0
MY7#21,17.348854313103036,26.423217646995806,0
ST5#21,15.950411562091652,28.309474352324717,0
TH4#21,14.002371143586704,25.289784961852494,0
BL0#22,15.530220355903785,19.944216479275422,0
CD1#22,17.435561094284765,21.79637437017478,0
CD9#22,14.855461269697468,21.7512286867628,0
GN0#22,14.236012988809254,20.36673405915718,0
GN3#22,14.532492428175347,21.415115233963004,0
GR4#22,13.49000729309323,19.889280899825412,0
GR9#22,13.924574552083083,24.34438353875962,0
HV1#22,11.718693577200263,17.03532086024725,0
KF1#22,6.349728980745687,9.111652009934966,0
LW2#22,20.538621277316736,28.19635297483603,0
MY7#22,17.37051350828598,26.743798335038896,0
ST5#22,16.636737764396315,27.55446793980903,0
TH4#22,14.484438903834754,25.511029209547477,0
BL0#23,15.3497035778077,19.459797796296943,0
CD1#23,17.412446445160093,21.096656052307303,0
CD9#23,14.544347428031653,21.261792680854455,0
GN0#23,14.309308892685705,20.288295470002804,0
GN3#23,14.287315090913683,21.13334176502974,0
GR4#23,13.87175046008939,19.673787158340076,0
GR9#23,13.78326832147797,23.36471676579945,0
HV1#23,11.722876278248346,16.49534567856155,0
KF1#23,6.294630113495183,8.967348443540324,0
LW2#23,18.749857216404312,25.985445951094757,0
MY7#23,17.029473146544202,26.435404956505934,0
ST5#23,16.16600741940632,25.937318983402488,0
TH4#23,14.421810060179714,25.532640326763484,0
BL0#24,14.906821004213707,18.73645481751662,0
CD1#24,16.904224234770584,20.498701305833535,0
CD9#24,13.727691829624778,20.168713836181766,0
GN0#24,14.358754046144284,19.879074169632847,0
GN3#24,13.957143278755936,20.362697742140483,0
GR4#24,13.675554657910338,19.46054684240501,0
GR9#24,13.365045246454791,22.939321384247318,0
HV1#24,11.474977263195468,15.95428916244045,0
KF1#24,6.184585381724966,8.777586884101694,0
LW2#24,16.312879297906452,23.076738967788852,0
MY7#24,16.50450161705163,25.1719455213666,0
ST5#24,15.592410286740572,25.802742918562217,0
TH4#24,14.063138676507268,24.836228050317764,0
BL0#25,14.481274777116766,18.41110920431678,0
CD1#25,16.16088194290223,19.31769907730946,0
CD9#25,12.510572704318193,18.67236234321221,0
GN0#25,13.713846118679543,19.448363302904564,0
GN3#25,13.479914638760068,19.54989832882866,0
GR4#25,13.294302006877956,18.932139694578602,0
GR9#25,12.838409381447972,21.903077559189654,0
HV1#25,11.511543387594426,15.65119335951393,0
KF1#25,6.011824960953822,8.577158413417802,0
LW2#25,15.199743054894224,21.277416265794592,0
MY7#25,15.450744061692635,23.819865350758132,0
ST5#25,15.474854816752856,24.028176484037598,0
TH4#25,13.587750780285395,24.010548959677582,0
BL0#26,13.944656072839074,17.558641279992784,0
CD1#26,15.163534449772653,17.961550640021926,0
CD9#26,11.46579536308485,16.843664788360655,0
GN0#26,13.106984359891888,18.33405022423404,0
GN3#26,12.813319412076774,18.930588754221752,0
GR4#26,13.001490437426753,18.496761137851546,0
GR9#26,12.25978520168696,20.83657095761126,0
HV1#26,11.119977705328328,14.846849750211597,0
KF1#26,5.946148231033781,8.459121882525256,0
LW2#26,13.598447363627162,19.725433810354584,0
MY7#26,14.277983515509757,22.235152459988143,0
ST5#26,13.556561689233458,20.982325623365238,0
TH4#26,13.225682889919455,22.714616076071923,0
BL0#27,13.40761730101335,17.224189806736664,0
CD1#27,14.547889978884822,16.93784192144569,0
CD9#27,10.618881674020347,15.476334035759374,0
GN0#27,12.619531956900012,17.219417691654847,0
GN3#27,12.127473494478473,17.692315752384022,0
GR4#27,12.591214297654941,17.575563623313645,0
GR9#27,11.479898581998416,19.845382362375283,0
HV1#27,10.656069561982116,14.171589638968685,0
KF1#27,5.788324966153728,8.218001571681649,0
LW2#27,12.198315639146545,17.760076868796425,0
MY7#27,13.110883189712375,20.34955384917863,0
ST5#27,14.280981902445665,21.705396874809676,0
TH4#27,12.072123250553771,21.42069463174274,0
BL0#28,13.268786804555846,16.70374435776629,0
CD1#28,14.224859925079445,16.112126849330597,0
CD9#28,9.98150877303972,14.629257807446937,0
GN0#28,12.26476250129585,16.895202842385217,0
GN3#28,11.537614771651524,17.241126915164404,0
GR4#28,12.010030215647179,17.438463674391926,0
GR9#28,10.907712226065877,18.89769706680538,0
HV1#28,10.324630150206696,13.629606301305886,0
KF1#28,5.65632747468554,8.012943720911009,0
LW2#28,12.160968998221696,17.58578550604096,0
MY7#28,12.606517910786229,19.36775591767647,0
ST5#28,14.143216644827838,21.578433915633763,0
TH4#28,11.722657411768209,20.547987504317824,0
BL0#29,12.984375830327153,16.03299704179261,0
CD1#29,13.946024659158269,15.758906417594673,0
CD9#29,9.853291815920938,14.384423487962982,0
GN0#29,12.032107059375617,16.43473824841493,0
GN3#29,11.449973343350656,16.687323324189656,0
GR4#29,11.806136669147044,16.88049511025489,0
GR9#29,10.695807582334233,18.45253722384379,0
HV1#29,10.183750754078925,13.490570469695939,0
KF1#29,5.5275760207071185,7.77702893023208,0
LW2#29,11.689495016242569,17.042376426502,0
MY7#29,12.616876356169024,18.88137691445948,0
ST5#29,13.558727495326252,21.0958743017833,0
TH4#29,11.573157481793546,20.10681343555985,0
BL0#30,12.687404323076649,15.815260232791521,0
CD1#30,13.977361274284714,16.014179068011767,0
CD9#30,10.052598123187664,14.993947707370085,0
GN0#30,11.664819071071246,16.73162644195362,0
GN3#30,11.425675551849526,16.895292689845046,0
GR4#30,11.649817301232655,16.4831342332818,0
GR9#30,10.852492719024939,19.174929752692826,0
HV1#30,9.869543032981811,13.639410981587138,0
KF1#30,5.418062817900224,7.749155493554139,0
LW2#30,12.106010202439332,17.814684368502437,0
MY7#30,12.593698515130335,19.424404507238762,0
ST5#30,13.296224993479552,22.240939740853893,0
TH4#30,11.764404837021852,20.905630589269926,0
BL0#31,12.77611844141918,16.141449585532694,0
CD1#31,14.497379775613913,17.669267042352363,0
CD9#31,10.975363271765776,16.509784638228773,0
GN0#31,12.077376258157269,17.455657188063203,0
GN3#31,11.899138980750633,17.702064733954366,0
GR4#31,11.387573411278948,16.532679496590198,0
GR9#31,11.355030654899117,20.156420338044082,0
HV1#31,10.39377422316465,15.202303804934635,0
KF1#31,5.395000286759349,7.813879375952677,0
LW2#31,12.29500054885947,18.49969591609635,0
MY7#31,13.545947744823854,21.32558314340051,0
ST5#31,14.609454261893784,26.452246691788748,0
TH4#31,13.013602758642298,22.956776747410405,0
BL0#32,12.988773504371666,16.80426662942866,0
CD1#32,15.689655207892285,20.177449576802356,0
CD9#32,12.559722299381669,18.8753809236803,0
GN0#32,13.007987107291049,18.341790574985183,0
GN3#32,12.354967792406327,18.450178022512446,0
GR4#32,11.576127130528466,17.07151629662757,0
GR9#32,11.810250700120243,21.095255785463852,0
HV1#32,10.941666785220312,16.769316935155803,0
KF1#32,5.462644793508201,8.07706622471675,0
LW2#32,12.968584031936807,18.874957606851584,0
MY7#32,15.106575545212166,23.563897241583714,0
ST5#32,14.642296502667458,28.85210384311401,0
TH4#32,14.260724875618576,26.058013520722852,0
BL0#33,13.610281770332975,18.244386288814916,0
CD1#33,16.486321913167828,21.920929195800188,0
CD9#33,13.650944866428254,20.84242483930545,0
GN0#33,12.67530096419063,19.135774894717283,0
GN3#33,12.548003886938329,19.284227081926083,0
GR4#33,11.59159291717964,17.564641529132366,0
GR9#33,11.54088836958975,21.026152506415947,0
HV1#33,11.093616718955571,17.520298579232104,0
KF1#33,5.461658009169345,8.407572946212266,0
LW2#33,13.04266186961379,19.875303263144858,0
MY7#33,15.644007296490066,24.649726956601167,0
ST5#33,15.361035914591977,29.12902933459703,0
TH4#33,14.62861460536296,27.1638560485158,0
BL0#34,13.947090553030801,20.23069376149438,0
CD1#34,16.760486657604808,22.780734628748778,0
CD9#34,14.581260225955715,22.05632471413902,0
GN0#34,13.183321279942225,20.153556252023193,0
GN3#34,12.521152452803074,19.732633179460578,0
GR4#34,11.935040841192002,18.318895414586116,0
GR9#34,11.22263545920278,21.016397348884155,0
HV1#34,11.048266494996337,17.55612082891055,0
KF1#34,5.4396474431877,9.029964985285524,0
LW2#34,13.100423323052345,20.60306906861292,0
MY7#34,16.22814417649234,26.13585012596325,0
ST5#34,15.714101057293329,31.31383929027404,0
TH4#34,14.446358277584892,28.089853323416584,0
BL0#35,13.963629699768092,20.13672051060397,0
CD1#35,16.845591429939354,23.908570202282156,0
CD9#35,14.589836658876013,22.271269871243554,0
GN0#35,13.020292344058227,20.185016483495943,0
GN3#35,12.354449731186502,19.827862596324838,0
GR4#35,12.25116318863709,18.173951393529908,0
GR9#35,11.131200757837712,20.84268860738408,0
HV1#35,10.532758284391956,17.567289276788596,0
KF1#35,5.365983070303728,9.126187658489266,0
LW2#35,13.044596089821821,20.90617094884882,0
MY7#35,16.557472892158962,26.68302016353429,0
ST5#35,15.54567687987046,32.561375248110046,0
TH4#35,14.07806434952404,28.51886126259632,0
BL0#36,13.77941647817677,19.688256950207467,0
CD1#36,15.760885914108414,22.8025356846473,0
CD9#36,14.058377171563246,21.784394663496254,0
GN0#36,12.157392265804901,18.985914166814666,0
GN3#36,11.749525265281354,19.78850066056981,0
GR4#36,11.601248802233567,17.62757742769555,0
GR9#36,10.613700270255514,20.158707001344165,0
HV1#36,10.194907683095503,17.76483159729649,0
KF1#36,5.145785031437383,8.704551901133295,0
LW2#36,13.114362092812515,20.295357270841194,0
MY7#36,16.000454939637656,26.46149713857906,0
ST5#36,14.594940539419087,31.134884501513962,0
TH4#36,13.739189372124267,27.708711456892576,0
BL0#37,13.353856234985804,19.409867551867226,0
CD1#37,15.351717769457824,21.719562710198733,0
CD9#37,13.773078227012796,21.41856112933021,0
GN0#37,11.463594426548738,19.001661391660047,0
GN3#37,11.164596884450383,18.86464457283394,0
GR4#37,11.405956350455478,17.3697686261788,0
GR9#37,10.286998352533303,20.31931687287816,0
HV1#37,9.887633792894876,17.419408110524028,0
KF1#37,4.9166950973964445,8.34165470188065,0
LW2#37,13.774486693204151,21.543113987308725,0
MY7#37,15.529061788979728,25.386019463710614,0
ST5#37,13.254924317946058,30.449620272443628,0
TH4#37,13.052026086330105,27.357458289324782,0
BL0#38,13.340331655230765,19.09864786754998,0
CD1#38,15.232624908189056,21.52549904564315,0
CD9#38,13.548160926247293,21.303494349813906,0
GN0#38,11.231217012448132,18.216284005596833,0
GN3#38,10.945995886489907,18.67576690566268,0
GR4#38,11.327578771008088,17.29708255271983,0
GR9#38,10.224256193839134,21.51177604644391,0
HV1#38,9.471828121018069,17.09885033704052,0
KF1#38,4.786906404947395,8.112366144142173,0
LW2#38,15.080182529803071,22.782886623281435,0
MY7#38,15.76980989252953,25.69985575027221,0
ST5#38,13.993115048674541,30.22470958750305,0
TH4#38,13.068652319879291,27.004461756569846,0
BL0#39,13.14877895461089,18.650789527143843,0
CD1#39,14.877384584846876,20.918753554633472,0
CD9#39,12.927721493682665,20.96987656525469,0
GN0#39,11.312098456165737,18.17541127704811,0
GN3#39,11.098707251564806,19.039740065301686,0
GR4#39,11.18122273344839,17.197535451345722,0
GR9#39,10.114875055709238,19.83851798900547,0
HV1#39,9.319467618508737,16.93473917329598,0
KF1#39,4.649936281346025,7.847065767868862,0
LW2#39,15.282589603226185,22.709505259807617,0
MY7#39,15.713103504474331,25.46681767335415,0
ST5#39,13.902220803117851,30.76317022623358,0
TH4#39,12.740890153417777,27.154161840933288,0
BL0#40,12.819123857043616,18.209539300647045,0
CD1#40,14.741518538120642,20.584786977869985,0
CD9#40,12.606908034781142,20.625371131743016,0
GN0#40,10.908855561138486,17.593506909520112,0
GN3#40,10.88195193589927,18.238867016625356,0
GR4#40,10.732793602804408,17.248426804679656,0
GR9#40,10.01213783352194,19.64047869361531,0
HV1#40,9.263452951232132,16.856158306971775,0
KF1#40,4.664993292154496,8.205548105600128,0
LW2#40,14.711657839453013,22.148274941458883,0
MY7#40,15.356148725739528,25.000216863276293,0
ST5#40,14.17619035858595,29.991108261808673,0
TH4#40,12.351718908926482,25.7182422656182,0
BL0#41,12.67306301949549,17.72024727826267,0
CD1#41,14.569682935684646,20.34425225910558,0
CD9#41,12.549834503715108,20.443864247067577,0
GN0#41,11.066421934303515,17.887319382820927,0
GN3#41,11.068874478466162,18.17411063259809,0
GR4#41,11.06194430873307,17.296897684647302,0
GR9#41,10.048181078838173,19.675309864112798,0
HV1#41,9.117516593760936,16.09189711655527,0
KF1#41,4.574056187523806,7.943870757685282,0
LW2#41,15.007772358895119,22.088707502890962,0
MY7#41,15.324656947986856,24.580289973945774,0
ST5#41,13.84623066319713,28.92234282456731,0
TH4#41,12.306761422913185,25.051637160137844,0
BL0#42,12.49273427760272,17.19308588898458,0
CD1#42,14.96287551399245,20.418553526970953,0
CD9#42,12.255457665226999,19.71190302800927,0
GN0#42,11.142238784653317,17.56038384102189,0
GN3#42,11.50306094619052,18.578751342018975,0
GR4#42,11.224377068168344,17.28936492718249,0
GR9#42,10.421305253363512,20.22779499093814,0
HV1#42,9.9190716743959,16.631147921910074,0
KF1#42,4.678073287904905,7.728225123170527,0
LW2#42,14.889465236692992,21.893841995417105,0
MY7#42,15.378531257979573,24.297093515461732,0
ST5#42,13.513091715823709,27.179851096621224,0
TH4#42,12.186630629322268,23.899242950535836,0
BL0#43,13.13128369350302,17.758052812355924,0
CD1#43,15.321503314932276,20.583188370823326,0
CD9#43,13.262600207070994,20.52702754828457,0
GN0#43,11.840773020691191,17.864730097533343,0
GN3#43,12.424905073224311,19.74919220585133,0
GR4#43,11.557305505596991,17.528253613023384,0
GR9#43,11.514092317036502,21.24400742023179,0
HV1#43,10.611905666901537,17.061132906726527,0
KF1#43,4.905169291317595,7.7546236124397545,0
LW2#43,16.240360338589213,23.595941374702313,0
MY7#43,15.938606322341123,24.729245118164947,0
ST5#43,14.563924075034578,26.794699220903574,0
TH4#43,12.55644661967643,24.053402021404438,0
BL0#44,14.033129793366564,18.43837133377464,0
CD1#44,16.301922961315253,21.297427169150886,0
CD9#44,14.34654781141551,21.151715206444855,0
GN0#44,12.596822274321392,19.004683681394678,0
GN3#44,13.468108434060978,20.665540595330185,0
GR4#44,12.117824832835584,18.37835564177458,0
GR9#44,12.369492812942223,22.41816901262346,0
HV1#44,10.89485502283901,16.870045789977656,0
KF1#44,5.365497657800074,8.082582294426107,0
LW2#44,18.95824058533232,25.93024313559756,0
MY7#44,16.523585652801064,25.50029235005004,0
ST5#44,15.264031308372306,27.700657361798957,0
TH4#44,13.425840778567055,24.73497834420075,0
BL0#45,14.950788838707451,19.19823863355611,0
CD1#45,16.959440606034946,21.74683296081143,0
CD9#45,14.64249842778461,21.391907735967486,0
GN0#45,13.409836169082027,19.86264677613961,0
GN3#45,14.13714069232081,20.82761754690601,0
GR4#45,13.307762125141457,19.063929943846745,0
GR9#45,13.335645226357835,23.72159199229828,0
HV1#45,11.731995431745364,17.50992039342247,0
KF1#45,5.878943122537442,8.617360124492857,0
LW2#45,20.04924660284198,28.216432800470102,0
MY7#45,17.33906722693287,26.449473829282745,0
ST5#45,15.887745584435919,28.326773538618333,0
TH4#45,14.051309989728686,25.335734560414227,0
BL0#46,15.562250922298848,19.995660349154946,0
CD1#46,17.452495163796204,21.79559805170029,0
CD9#46,14.861753833086324,21.765062643930484,0
GN0#46,14.258870499560533,20.374746188071786,0
GN3#46,14.552686732687874,21.434825468245734,0
GR4#46,13.487649368849462,19.890842500062117,0
GR9#46,13.940108823975407,24.33915494393926,0
HV1#46,11.741138627541645,17.081048124567772,0
KF1#46,6.354878640515136,9.131962528176576,0
LW2#46,20.594648840685426,28.262609687665034,0
MY7#46,17.370974062183457,26.788460240215812,0
ST5#46,16.617407174498148,27.57153757707372,0
TH4#46,14.547475343816194,25.45030365990012,0
BL0#47,15.360066234336307,19.500820087869172,0
CD1#47,17.45507759742901,21.178698220153155,0
CD9#47,14.552026877152628,21.266453107170154,0
GN0#47,14.34055921960894,20.32414086093061,0
GN3#47,14.34263531612952,21.155223378656608,0
GR4#47,13.879312242782895,19.673413299583526,0
GR9#47,13.84749814548226,23.37746521145607,0
HV1#47,11.724073999417632,16.540256104758587,0
KF1#47,6.309610510589069,9.000258048376631,0
LW2#47,18.734309644997698,26.033635420974477,0
MY7#47,17.06352306827465,26.48378615158663,0
ST5#47,16.201114522311823,25.97534332466861,0
TH4#47,14.470167656301976,25.587736381029487,0
